[
    {
        "language": "DE",
        "period": "04/2021 - heute",
        "workplace": ["Syntegon Packaging Systems"],
        "description": "Praktikant",
        "achievements": [
            "Entwicklung eines Full-Stack-Web-App-Systems zur Erfassung und Verwaltung von Smart-Machine-Daten",
            "Maschinendatenintegration mit MQTT, Telegraf und InfluxDB"
        ],
        "image": "syntegon.png",
        "location": ["Beringen", "CH"]
    },
    {
        "language": "EN",
        "period": "04/2021 - today",
        "workplace": ["Syntegon Packaging Systems"],
        "description": "Intern in Software Development",
        "achievements": [
            "Fullstack Web Development",
            "Smart Machine Data",
            "MQTT, Telegraf and InfluxDB"
        ],
        "image": "syntegon.png",
        "location": ["Beringen", "CH"]
    },
    {
        "language": "DE",
        "period": "09/2019 - 03/2021",
        "workplace": ["Fraunhofer-Institut"],
        "description": "Wissenschaftliche Hilfskraft",
        "achievements": [
            "Full-Stack-Web-App-Entwicklung mit Java Spring Boot, Angular und relationalen Datenbanken",
            "Erfahrung mit Scrum, Agile und CI/CD-Frameworks für Codequalität"
        ],
        "image": "fraunhofer.svg",
        "location": ["Dortmund", "DE"]
    },
    {
        "language": "EN",
        "period": "09/2019 - 03/2021",
        "workplace": ["Fraunhofer Institute"],
        "description": "Research assistant",
        "achievements": [
            "Fullstack Web Development with Spring Boot and Angular",
            "Scrum, Agile, CI/CD and Linting"
        ],
        "image": "fraunhofer.svg",
        "location": ["Dortmund", "DE"]
    },
    {
        "language": "DE",
        "period": "08/2018 - 03/2021",
        "workplace": [
            "Ruhr-Universität Bochum",
            "Lehrstuhl für Produktionssysteme"
        ],
        "description": "Wissenschaftliche Hilfskraft",
        "achievements": [
            "Entwicklung einer Web App zur Erfassung von Betriebsdaten einer manuellen Montagelinie",
            "Digitalisierung und Anbindung von Maschinen an Datenbanken mit OPC UA",
            "Integration von RFID-Tag-Lesegeräten in eine Produktionslinie und Entwicklung einer Visualisierungslösung"
        ],
        "image": "rub.gif",
        "location": ["Bochum", "DE"]
    },
    {
        "language": "EN",
        "period": "08/2018 - 03/2021",
        "workplace": [
            "Ruhr-Universität Bochum",
            "Chair for Production Systems"
        ],
        "description": "Research assistant",
        "achievements": [
            "Web App Development",
            "Industry 4.0",
            "Digitalization of machines"
        ],
        "image": "rub.gif",
        "location": ["Bochum", "DE"]
    },
    {
        "language": "DE",
        "period": "08/2018 - 09/2019",
        "workplace": [
            "Ruhr-Universität Bochum",
            "Lehrstuhl für Hochfrequenzsysteme"
        ],
        "description": "Wissenschaftliche Hilfskraft",
        "achievements": [
            "Steuerung eines kommerziellen Radarmoduls und Datenanalyse mit Matlab"
        ],
        "image": "rub.gif",
        "location": ["Bochum", "DE"]
    },
    {
        "language": "EN",
        "period": "08/2018 - 09/2019",
        "workplace": [
            "Ruhr-Universität Bochum",
            "Chair for High-Frequency Systems"
        ],
        "description": "Research assistant",
        "achievements": ["Radar applications for the industry"],
        "image": "rub.gif",
        "location": ["Bochum", "DE"]
    },
    {
        "language": "DE",
        "period": "03/2017 - 05/2017",
        "workplace": ["Deutsche Zentrum für Luft- und Raumfahrt"],
        "description": "Praktikant am Institut für Luft- und Raumfahrtmedizin",
        "achievements": [
            "Konzipierung einer Benutzeroberfläche sowie die Programmierung eines Kontrollsystems einer Zentrifuge"
        ],
        "image": "dlr.png",
        "location": ["Köln", "DE"]
    },
    {
        "language": "EN",
        "period": "03/2017 - 05/2017",
        "workplace": ["German Aerospace Center"],
        "description": "Intern at the Institute of Aerospace Medicine",
        "achievements": [
            "User interface design",
            "Programming of industrial controllers"
        ],
        "image": "dlr.png",
        "location": ["Köln", "DE"]
    }
]
